Case Study: How does a bike-share navigate speedy success?
…
unique(combined_tripdata_v2$month)

##  [1] Oct_20 Nov_20 Dec_20 Jan_21 Feb_21 Mar_21 Apr_21 May_21 Jun_21 Jul_21
## [11] Aug_21 Sep_21
## 12 Levels: Oct_20 < Nov_20 < Dec_20 < Jan_21 < Feb_21 < Mar_21 < ... < Sep_21

combined_tripdata_v2 %>%
  group_by(consumer_type, month) %>% 
  summarise(number_of_rides = n(), `average_duration_(mins)` = mean(trip_duration)) %>%
  arrange(consumer_type, desc(number_of_rides))

## `summarise()` has grouped output by 'consumer_type'. You can override using the `.groups` argument.

## # A tibble: 24 x 4
## # Groups:   consumer_type [2]
##    consumer_type month  number_of_rides `average_duration_(mins)`
##    <chr>         <ord>            <int>                     <dbl>
##  1 casual        Jul_21          442048                      32.8
##  2 casual        Aug_21          412662                      28.8
##  3 casual        Jun_21          370678                      37.1
##  4 casual        Sep_21          363883                      27.8
##  5 casual        May_21          256916                      38.2
##  6 casual        Oct_20          143850                      30.4
##  7 casual        Apr_21          136601                      38.0
##  8 casual        Nov_20           87810                      31.9
##  9 casual        Mar_21           84032                      38.2
## 10 casual        Dec_20           29997                      26.8
## # ... with 14 more rows
…
